182.70.65.209 - - [30/Jul/2020:07:03:51 +0000] "GET / HTTP/1.1" 200 11216
182.70.65.209 - - [30/Jul/2020:07:03:51 +0000] "GET /tomcat.png HTTP/1.1" 200 5103
182.70.65.209 - - [30/Jul/2020:07:03:51 +0000] "GET /tomcat.css HTTP/1.1" 200 5581
182.70.65.209 - - [30/Jul/2020:07:03:51 +0000] "GET /bg-nav.png HTTP/1.1" 200 1401
182.70.65.209 - - [30/Jul/2020:07:03:51 +0000] "GET /asf-logo-wide.svg HTTP/1.1" 200 27235
182.70.65.209 - - [30/Jul/2020:07:03:51 +0000] "GET /bg-button.png HTTP/1.1" 200 713
182.70.65.209 - - [30/Jul/2020:07:03:51 +0000] "GET /bg-upper.png HTTP/1.1" 200 3103
182.70.65.209 - - [30/Jul/2020:07:03:51 +0000] "GET /bg-middle.png HTTP/1.1" 200 1918
182.70.65.209 - - [30/Jul/2020:07:03:52 +0000] "GET /favicon.ico HTTP/1.1" 200 21630
182.70.65.209 - - [30/Jul/2020:07:03:57 +0000] "GET /manager/html HTTP/1.1" 403 3446
182.70.65.209 - - [30/Jul/2020:10:39:16 +0000] "GET /HelloWorld HTTP/1.1" 200 162
182.70.65.209 - - [30/Jul/2020:10:39:27 +0000] "GET /HelloWorld HTTP/1.1" 200 162
182.70.65.209 - - [30/Jul/2020:10:39:30 +0000] "GET /HelloWorld HTTP/1.1" 200 162
182.70.65.209 - - [30/Jul/2020:10:39:33 +0000] "GET /HelloWorld HTTP/1.1" 200 162
182.70.65.209 - - [30/Jul/2020:10:39:39 +0000] "GET /HelloWorld HTTP/1.1" 404 719
182.70.65.209 - - [30/Jul/2020:10:40:18 +0000] "GET /HelloWorld HTTP/1.1" 200 162
182.70.65.209 - - [30/Jul/2020:12:09:09 +0000] "GET / HTTP/1.1" 200 11216
182.70.65.209 - - [30/Jul/2020:12:09:09 +0000] "GET /tomcat.css HTTP/1.1" 200 5581
182.70.65.209 - - [30/Jul/2020:12:09:09 +0000] "GET /tomcat.png HTTP/1.1" 200 5103
182.70.65.209 - - [30/Jul/2020:12:09:09 +0000] "GET /bg-nav.png HTTP/1.1" 200 1401
182.70.65.209 - - [30/Jul/2020:12:09:09 +0000] "GET /asf-logo-wide.svg HTTP/1.1" 200 27235
182.70.65.209 - - [30/Jul/2020:12:09:09 +0000] "GET /bg-upper.png HTTP/1.1" 200 3103
182.70.65.209 - - [30/Jul/2020:12:09:09 +0000] "GET /bg-middle.png HTTP/1.1" 200 1918
182.70.65.209 - - [30/Jul/2020:12:09:09 +0000] "GET /bg-button.png HTTP/1.1" 200 713
182.70.65.209 - - [30/Jul/2020:12:09:13 +0000] "GET /manager/html HTTP/1.1" 401 2499
182.70.65.209 - admin [30/Jul/2020:12:09:16 +0000] "GET /manager/html HTTP/1.1" 200 19450
182.70.65.209 - - [30/Jul/2020:12:09:17 +0000] "GET /manager/images/tomcat.gif HTTP/1.1" 200 2066
182.70.65.209 - - [30/Jul/2020:12:09:17 +0000] "GET /manager/images/asf-logo.svg HTTP/1.1" 200 20486
182.70.65.209 - - [30/Jul/2020:12:09:17 +0000] "GET /favicon.ico HTTP/1.1" 200 21630
